vegadown • vegadown
…
To get the labels of chunks that use vegadown (thus far in the RMarkdown document):

vegadown_labels()
#> [1] "json-cars" "yaml-cars"

Interpolation from R

Writing a spec by hand is feasible if your data is available through a URL. However, it would be tedious to specify the data values manually. This is where interpolation is useful.

Let’s introduce this topic using palmerpenguins, by Allison Horst, Alison Hill, and Kristen Gorman:

library("palmerpenguins")

penguins
#> # A tibble: 344 x 8
#>    species island bill_length_mm bill_depth_mm flipper_length_… body_mass_g
#>    <fct>   <fct>           <dbl>         <dbl>            <int>       <int>
#>  1 Adelie  Torge…           39.1          18.7              181        3750
#>  2 Adelie  Torge…           39.5          17.4              186        3800
#>  3 Adelie  Torge…           40.3          18                195        3250
#>  4 Adelie  Torge…           NA            NA                 NA          NA
#>  5 Adelie  Torge…           36.7          19.3              193        3450
#>  6 Adelie  Torge…           39.3          20.6              190        3650
#>  7 Adelie  Torge…           38.9          17.8              181        3625
#>  8 Adelie  Torge…           39.2          19.6              195        4675
#>  9 Adelie  Torge…           34.1          18.1              193        3475
#> 10 Adelie  Torge…           42            20.2              190        4250
#> # … with 334 more rows, and 2 more variables: sex <fct>, year <int>
…
